{
  "globals": {
    "bucket_name": "benchmark-simulations",
    "bucket_region": "us-west-2",
    "account_alias":"terra-docs"
  },
  "models": [
    {
      "model_name": "olympus",
      "s3_path": "",
      "host_name": "",
      "data_file": "",
      "output_path": "",
      "simulators": [
        "echelon"
      ]
    }
  ]
}